{
  "apiUrl": "https://api.dike.bet/api",
  "drawingGraphUrl": "https://api.dike.bet/api/drawing-graphql",
  "userGraphUrl": "https://aura-api.dike.bet/api/user-graphql",
  "socketBaseUrl": "https://api.dike.bet"
}
